Project 1: Exploratory Data Analysis
…
## # A tibble: 6 x 3
##   Region                          count countavg
##   <fct>                           <int>    <dbl>
## 1 Asia and the Pacific               20  0.159  
## 2 Europe and Central Asia            41  0.325  
## 3 Latin America and the Caribbean    24  0.190  
## 4 Middle East and North Africa       15  0.119  
## 5 North America                       1  0.00794
## 6 Sub-Saharan Africa                 25  0.198

fullset %>% group_by(Region, Income.Group, obesity_rank) %>% 
    summarize(count = n())

## # A tibble: 33 x 4
## # Groups:   Region, Income.Group [18]
##    Region                  Income.Group            obesity_rank count
##    <fct>                   <fct>                   <chr>        <int>
##  1 Asia and the Pacific    1 (High Income)         high             2
##  2 Asia and the Pacific    1 (High Income)         low              2
##  3 Asia and the Pacific    1 (High Income)         medium           1
##  4 Asia and the Pacific    2 (Upper-Middle Income) high             1
##  5 Asia and the Pacific    2 (Upper-Middle Income) low              3
##  6 Asia and the Pacific    2 (Upper-Middle Income) medium           1
##  7 Asia and the Pacific    3 (Lower-Middle Income) low              6
##  8 Asia and the Pacific    3 (Lower-Middle Income) medium           1
##  9 Asia and the Pacific    4 (Low Income)          low              3
## 10 Europe and Central Asia 1 (High Income)         high            23
## # … with 23 more rows
…
